module github.com/appnostic-io/nos

go 1.13

require (
	github.com/alexflint/go-arg v1.3.0 // indirect
	github.com/docker/docker v1.13.1
	github.com/docker/go-connections v0.4.0 // indirect
	github.com/docker/go-units v0.4.0 // indirect
	github.com/fatih/structs v1.1.0
	github.com/ghodss/yaml v1.0.0
	github.com/imdario/mergo v0.3.7 // indirect
	github.com/keegancsmith/shell v0.0.0-20160208231706-ccb53e0c7c5c // indirect
	github.com/konsorten/go-windows-terminal-sequences v1.0.2 // indirect
	github.com/mattn/go-isatty v0.0.10 // indirect
	github.com/milosgajdos/tenus v0.0.3
	github.com/moznion/go-netplan-types v0.1.0
	github.com/moznion/go-yaml-nillable v0.1.0
	github.com/otiai10/copy v1.0.2
	github.com/paultag/go-modprobe v0.0.0-20180523225901-7ccf6a1b5271
	github.com/pkg/errors v0.9.1
	github.com/ramr/go-reaper v0.2.0
	github.com/rancher/k3os v0.11.1 // indirect
	github.com/rancher/mapper v0.0.0-20190814232720-058a8b7feb99
	github.com/rancher/wrangler v0.3.1 // indirect
	github.com/sirupsen/logrus v1.4.2
	github.com/spf13/cobra v1.1.1
	github.com/spf13/viper v1.7.1 // indirect
	github.com/stretchr/testify v1.4.0 // indirect
	github.com/urfave/cli v1.22.2
	golang.org/x/crypto v0.0.0-20191122220453-ac88ee75c92c
	golang.org/x/sys v0.0.0-20191127021746-63cb32ae39b2
	gopkg.in/freddierice/go-losetup.v1 v1.0.0-20170407175016-fc9adea44124
	gopkg.in/yaml.v2 v2.2.8
	gopkg.in/yaml.v3 v3.0.0-20210107192922-496545a6307b
	pault.ag/go/topsort v0.0.0-20160530003732-f98d2ad46e1a // indirect
)

replace (
	k8s.io/api => github.com/rancher/kubernetes/staging/src/k8s.io/api v1.16.3-k3s.2
	k8s.io/apiextensions-apiserver => github.com/rancher/kubernetes/staging/src/k8s.io/apiextensions-apiserver v1.16.3-k3s.2
	k8s.io/apimachinery => github.com/rancher/kubernetes/staging/src/k8s.io/apimachinery v1.16.3-k3s.2
	k8s.io/apiserver => github.com/rancher/kubernetes/staging/src/k8s.io/apiserver v1.16.3-k3s.2
	k8s.io/client-go => github.com/rancher/kubernetes/staging/src/k8s.io/client-go v1.16.3-k3s.2
	k8s.io/code-generator => github.com/rancher/kubernetes/staging/src/k8s.io/code-generator v1.16.3-k3s.2
	k8s.io/component-base => github.com/rancher/kubernetes/staging/src/k8s.io/component-base v1.16.3-k3s.2
	k8s.io/kube-aggregator => github.com/rancher/kubernetes/staging/src/k8s.io/kube-aggregator v1.16.3-k3s.2
	k8s.io/metrics => github.com/rancher/kubernetes/staging/src/k8s.io/metrics v1.16.3-k3s.2
)
